C:\Users\ARUPPANJA\git\SpringBootThymeleaf\src\main\java\com\thymeleafdemo\SpringBootThymeleaf\App.java
C:\Users\ARUPPANJA\git\SpringBootThymeleaf\src\main\java\com\thymeleafdemo\SpringBootThymeleaf\EmployeeController.java
C:\Users\ARUPPANJA\git\SpringBootThymeleaf\src\main\java\com\thymeleafdemo\SpringBootThymeleaf\Employee.java
